…
``` r
problems()
```

Really only need to parse out the date from the `Date` field.

``` r
r0
```

    ## # A tibble: 1,903 × 15
    ##    InsertTime       FileName TableName Biome SiteType SiteNumber ReachType Date 
    ##    <chr>            <chr>    <chr>     <chr> <chr>         <dbl> <chr>     <chr>
    ##  1 8/29/2014 1:30:… KNZ1408… Nutu12    KNZ   E                 1 C         5/31…
    ##  2 8/29/2014 1:30:… KNZ1408… Nutu12    KNZ   E                 1 C         5/31…
    ##  3 8/29/2014 1:30:… KNZ1408… Nutu12    KNZ   E                 1 C         5/31…
    ##  4 8/29/2014 1:30:… KNZ1408… Nutu12    KNZ   E                 1 C         5/31…
    ##  5 8/29/2014 1:30:… KNZ1408… Nutu12    KNZ   E                 1 C         5/31…
    ##  6 8/29/2014 1:30:… KNZ1408… Nutu12    KNZ   E                 1 C         5/31…
    ##  7 8/29/2014 1:30:… KNZ1408… Nutu12    KNZ   E                 1 C         5/31…
    ##  8 8/29/2014 1:30:… KNZ1408… Nutu12    KNZ   E                 1 C         5/31…
    ##  9 8/29/2014 1:30:… KNZ1408… Nutu12    KNZ   E                 1 C         5/31…
    ## 10 8/29/2014 1:30:… KNZ1408… Nutu12    KNZ   E                 1 C         5/31…
    ## # … with 1,893 more rows, and 7 more variables: `Sample number` <dbl>,
    ## #   `Sampling Time (hh:mm)` <time>, `Ammonium (ug N/L)` <dbl>,
    ## #   `Chloride tracer (mg/L)` <dbl>, `Bromide tracer (mg/L)` <dbl>,
    ## #   Comments <chr>, ...15 <lgl>

``` r
r0 %>% 
  distinct(Comments)
```

    ## # A tibble: 49 × 1
    ##    Comments                  
    ##    <chr>                     
    ##  1 <NA>                      
    ##  2 4 minutes since injection 
    ##  3 6 minutes since injection 
    ##  4 35 minutes since injection
    ##  5 50 minutes since injection
    ##  6 52 minutes since injection
    ##  7 54 minutes since injection
    ##  8 56 minutes since injection
    ##  9 57 minutes since injection
    ## 10 58 minutes since injection
    ## # … with 39 more rows
…
